Gather – By the Numbers
…
Warning: One or more parsing issues, call `problems()` on your data frame for details,
e.g.:
  dat <- vroom(...)
  problems(dat)

 ■■■■■■■■■■■■■■■■■■■■■■            69% |  ETA:  6s

 ■■■■■■■■■■■■■■■■■■■■■■■■■■■       88% |  ETA:  3s

New names:
• `` -> `...17`

[[1]]
# A tibble: 2,617 × 9
   CALL  `FINAL SCORE` CLASS `TOTAL QSOS` `Power Multiplier` `GOTA CALL` SEC  
   <chr>         <dbl> <chr>        <dbl>              <dbl> <chr>       <chr>
 1 AA0A           1444 1D             722                  2 <NA>        MO   
 2 AA0T            360 1B2B            25                  5 <NA>        SC   
 3 AA1K            418 1C              67                  2 <NA>        DE   
 4 AA1PL          3908 2B2           1041                  2 <NA>        RI   
 5 AA2GV          1014 6AC            199                  2 <NA>        WNY  
 6 AA2JT            62 1D               6                  2 <NA>        NNJ  
 7 AA2JZ           766 1D             200                  2 <NA>        NFL  
 8 AA3B           8558 1E            2077                  2 <NA>        EPA  
 9 AA3DC           968 3A             261                  2 <NA>        MDC  
10 AA3E           5254 2F            1914                  2 WM3L        EPA  
# ℹ 2,607 more rows
# ℹ 2 more variables: `Number of Participants` <dbl>, `CLUB NAME` <chr>

[[2]]
# A tibble: 2,632 × 9
   CALL  `FINAL SCORE` CLASS `TOTAL QSOS` `Power Multiplier` `GOTA CALL` SEC  
   <chr>         <dbl> <chr>        <dbl>              <dbl> <chr>       <chr>
 1 8P6UK           296 1F             123                  2 <NA>        DX   
 2 AA1LL           100 1B1C            25                  2 <NA>        ME   
 3 AA1O           2370 1E             232                  5 <NA>        EMA  
 4 AA1PL          1295 1B1B           114                  5 <NA>        RI   
 5 AA2BJ          2732 1D             744                  2 <NA>        EPA  
 6 AA2GV           358 2AC            154                  2 <NA>        WNY  
 7 AA2JZ           672 1D             190                  2 <NA>        NFL  
 8 AA3B           9698 1E            2362                  2 <NA>        EPA  
 9 AA3DC          1162 3A             316                  2 <NA>        MDC  
10 AA3RG          1826 3A             587                  2 <NA>        EPA  
# ℹ 2,622 more rows
# ℹ 2 more variables: `Number of Participants` <dbl>, `CLUB NAME` <chr>

[[3]]
# A tibble: 2,617 × 9
   CALL   `FINAL SCORE` CLASS `TOTAL QSOS` `Power Multiplier` `GOTA CALL` SEC  
   <chr>          <dbl> <chr>        <dbl>              <dbl> <chr>       <chr>
 1 4U1GSC            85 1AC             35                  1 <NA>        DX   
 2 AA1PL            736 1B1            241                  2 <NA>        RI   
 3 AA1PR            108 1C               4                  2 <NA>        VT   
 4 AA2BJ           3240 1D             879                  2 <NA>        EPA  
 5 AA3B            9202 1E            2238                  2 <NA>        EPA  
 6 AA3DC            976 3A             224                  2 <NA>        MDC  
 7 AA3E            3240 1F            1030                  2 <NA>        EPA  
 8 AA3MG             62 1D              31                  2 <NA>        WPA  
 9 AA4GA           3500 1B1B           329                  5 <NA>        GA   
10 AA4LR            896 1E             212                  2 <NA>        GA   
# ℹ 2,607 more rows
# ℹ 2 more variables: `Number of Participants` <dbl>, `CLUB NAME` <chr>

[[4]]
# A tibble: 2,548 × 9
   CALL  `FINAL SCORE` CLASS `TOTAL QSOS` `Power Multiplier` `GOTA CALL` SEC  
   <chr>         <dbl> <chr>        <dbl>              <dbl> <chr>       <chr>
 1 AA1K           4050 1C             390                  5 <NA>        DE   
 2 AA1PL          1500 1B1B           136                  5 <NA>        RI   
 3 AA1PR           288 1D             144                  2 <NA>        VT   
 4 AA2BJ          3542 1D            1006                  2 <NA>        EPA  
 5 AA2DC          8416 2E            2812                  2 <NA>        NLI  
 6 AA2JZ           750 1E             150                  2 <NA>        NFL  
 7 AA3B           8846 1E            2149                  2 <NA>        EPA  
 8 AA3DC           810 3A             210                  2 <NA>        MDC  
 9 AA4GA          1460 1E             136                  5 <NA>        GA   
10 AA4JI          1620 1B1B           264                  5 <NA>        TN   
# ℹ 2,538 more rows
# ℹ 2 more variables: `Number of Participants` <dbl>, `CLUB NAME` <chr>

[[5]]
# A tibble: 2,686 × 9
   CALL  `FINAL SCORE` CLASS `TOTAL QSOS` `Power Multiplier` `GOTA CALL` SEC  
   <chr>         <dbl> <chr>        <dbl>              <dbl> <chr>       <chr>
 1 AA1CA          1490 1E             144                  5 <NA>        NH   
 2 AA1PL           942 1B1            209                  2 <NA>        ME   
 3 AA2BJ          3418 1D             953                  2 <NA>        EPA  
 4 AA3B           9610 1E            2315                  2 <NA>        EPA  
 5 AA3CS          1658 1E             377                  2 <NA>        MDC  
 6 AA3KM           498 1E              37                  2 <NA>        STX  
 7 AA3TL           364 1A              91                  2 <NA>        EPA  
 8 AA4LR           208 1D              52                  2 <NA>        GA   
 9 AA4P           1490 2A             200                  2 <NA>        GA   
10 AA4TA          1728 5A             425                  2 W4CHM       TN   
# ℹ 2,676 more rows
# ℹ 2 more variables: `Number of Participants` <dbl>, `CLUB NAME` <chr>

[[6]]
# A tibble: 2,720 × 9
   CALL  `FINAL SCORE` CLASS `TOTAL QSOS` `Power Multiplier` `GOTA CALL` SEC  
   <chr>         <dbl> <chr>        <dbl>              <dbl> <chr>       <chr>
 1 3D2KM            62 1D               5                  2 <NA>        DX   
 2 4A5XX           418 1D              92                  2 <NA>        DX   
 3 AA1O            248 1E              50                  2 <NA>        EMA  
 4 AA2BJ          3058 1D             848                  2 <NA>        EPA  
 5 AA2MA           186 1E               9                  2 <NA>        NTX  
 6 AA3B           9410 1E            2290                  2 <NA>        EPA  
 7 AA4JI          2145 1B1B           329                  5 <NA>        TN   
 8 AA4LR           380 1E              58                  2 <NA>        GA   
 9 AA4P           1912 2A             310                  2 <NA>        GA   
10 AA5AR          4762 3AC           1114                  2 <NA>        AR   
# ℹ 2,710 more rows
# ℹ 2 more variables: `Number of Participants` <dbl>, `CLUB NAME` <chr>

[[7]]
# A tibble: 2,696 × 15
   CALL  `GOTA CALL` `CLUB NAME`      Section `Number of Transmitters` Category
   <chr> <chr>       <chr>            <chr>                      <dbl> <chr>   
 1 AA1AZ <NA>        <NA>             CT                             1 1D      
 2 AA1RB <NA>        <NA>             VA                             1 1B1B    
 3 AA2BJ <NA>        <NA>             EPA                            1 1D      
 4 AA2GV <NA>        <NA>             WNY                            2 2AC     
 5 AA3B  <NA>        <NA>             EPA                            1 1E      
 6 AA3CS <NA>        <NA>             MDC                            1 1E      
 7 AA3E  <NA>        MCARES/RACES-EOC EPA                            7 7F      
 8 AA4JI <NA>        <NA>             TN                             1 1B1B    
 9 AA4MF <NA>        <NA>             KY                             1 1D      
10 AA4NC <NA>        No Will FD Group NC                             2 2A      
# ℹ 2,686 more rows
# ℹ 9 more variables: `POWER SOURCE` <chr>, `FINAL SCORE` <dbl>,
#   `TOTAL QSOS` <dbl>, `TOTAL CW QSOs` <dbl>, `TOTAL DIGITAL QSOs` <dbl>,
#   `TOTAL PHONE QSOs` <dbl>, `Power Multiplier` <dbl>, `BONUS POINTS` <dbl>,
#   `Number of Participants` <dbl>

[[8]]
# A tibble: 2,965 × 15
   CALL (does not inclu…¹ `GOTA CALL` `CLUB NAME` Section Number of Transmitte…²
   <chr>                  <chr>       <chr>       <chr>                    <dbl>
 1 AA1K                   <NA>        <NA>        DE                           1
 2 AA1PL                  <NA>        <NA>        CT                           2
 3 AA1RB                  <NA>        <NA>        VA                           1
 4 AA2BJ                  <NA>        <NA>        EPA                          1
 5 AA3B                   <NA>        <NA>        EPA                          2
 6 AA3CS                  <NA>        <NA>        MDC                          1
 7 AA3S                   <NA>        <NA>        MDC                          1
 8 AA4AK                  <NA>        <NA>        ME                           1
 9 AA4GT                  <NA>        <NA>        SFL                          1
10 AA4LR                  <NA>        <NA>        GA                           1
# ℹ 2,955 more rows
# ℹ abbreviated names: ¹​`CALL (does not include checklogs)`,
#   ²​`Number of Transmitters`
# ℹ 10 more variables: Category <chr>, `POWER SOURCE` <chr>,
#   `FINAL SCORE` <dbl>, `TOTAL QSOS` <dbl>, `TOTAL CW QSOs` <dbl>,
#   `TOTAL DIGITAL QSOs` <dbl>, `TOTAL PHONE QSOs` <dbl>,
#   `Power Multiplier` <dbl>, `BONUS POINTS` <dbl>, …

[[9]]
# A tibble: 2,902 × 15
   CALL  `GOTA CALL` `FINAL SCORE` `QST Class Plus` Section `Power Multiplier`
   <chr> <chr>               <dbl> <chr>            <chr>                <dbl>
 1 AA1CA <NA>                  810 1D               NH                       2
 2 AA1RB <NA>                  730 1B1B             VA                       5
 3 AA2BJ <NA>                 3358 1D               EPA                      2
 4 AA2Y  <NA>                  400 1D               ENY                      2
 5 AA3B  <NA>                12206 2E               EPA                      2
 6 AA4AG <NA>                 1040 1A               VA                       2
 7 AA4MF <NA>                  136 1D               KY                       1
 8 AA4P  W4UCJ                2256 4F               GA                       2
 9 AA4RA <NA>                   94 1D               SC                       2
10 AA4RV <NA>                 2918 3F               NC                       2
# ℹ 2,892 more rows
# ℹ 9 more variables: `CLUB NAME` <chr>, `Number of Participants` <dbl>,
#   `Number of Transmitters` <dbl>, `POWER SOURCE` <chr>,
#   `TOTAL CW QSOs` <dbl>, `TOTAL DIGITAL QSOs` <dbl>,
#   `TOTAL PHONE QSOs` <dbl>, `TOTAL QSOS` <dbl>, `BONUS POINTS` <dbl>

[[10]]
# A tibble: 2,926 × 15
   CALL  `GOTA CALL` `FINAL SCORE` `QST Class` Section `Power Multiplier`
   <chr> <chr>               <dbl> <chr>       <chr>                <dbl>
 1 W3AO  K3CUJ               32356 14A         MDC                      2
 2 K6EI  W6ZZZ               21065 9AB         SCV                      5
 3 W4IY  W4AD                18252 9A          VA                       2
 4 W4EZ  <NA>                17135 9AB         NC                       5
 5 N6HC  KX6D                17082 5A          LAX                      2
 6 KK5W  <NA>                15882 10A         STX                      2
 7 K2AA  W2EA                15648 7A          SNJ                      2
 8 W6F   <NA>                15090 6AB         SDG                      5
 9 W4NC  W4WS                15054 9A          NC                       2
10 W1NVT W1PU                14876 2A          VT                       2
# ℹ 2,916 more rows
# ℹ 9 more variables: `Club Name` <chr>, Participants <dbl>, Xmtrs <dbl>,
#   `Power Source` <chr>, `TOTAL CW QSOs` <dbl>, `TOTAL DIGITAL QSOs` <dbl>,
#   `TOTAL PHONE QSOs` <dbl>, `TOTAL QSOs` <dbl>, `BONUS POINTS` <dbl>

[[11]]
# A tibble: 9,601 × 15
   CALL  `GOTA CALL` SCORE Category Section `Pwr- Mult` `CLUB NAME` Participants
   <chr> <chr>       <dbl> <chr>    <chr>         <dbl> <chr>              <dbl>
 1 AA1CA <NA>          290 1D       NH                2 Port City …            1
 2 AA1ES <NA>          180 1E       NH                5 Contoocook…            1
 3 AA1K  <NA>         8010 1E       DE                5 <NA>                   1
 4 AA1MA <NA>           78 1D       EMA               2 Sturdy Mem…            1
 5 AA1O  <NA>          450 1E       EMA               2 Police Ama…            1
 6 AA1SB <NA>         1130 1E       NH                2 Port City …            1
 7 AA1W  <NA>          472 1D       NH                2 <NA>                   1
 8 AA1WH <NA>          554 1D       WMA               2 Hampden Co…            1
 9 AA1XV <NA>         2490 1D       CT                2 Greater No…            1
10 AA2BJ <NA>         4196 1D       EPA               2 <NA>                   2
# ℹ 9,591 more rows
# ℹ 7 more variables: Xmtrs <dbl>, `Power Source` <chr>, `TOTAL CW QSOs` <dbl>,
#   `TOTAL DIGITAL QSOs` <dbl>, `TOTAL PHONE QSOs` <dbl>, `TOTAL QSOs` <dbl>,
#   `BONUS POINTS` <dbl>

[[12]]
# A tibble: 5,878 × 15
   CALL  `GOTA Call` Score Category Section Pwr_Mult `Club Name`    Participants
   <chr> <chr>       <dbl> <chr>    <chr>      <dbl> <chr>                 <dbl>
 1 AA1AO <NA>          444 1D       OR             2 McMinnville A…            1
 2 AA1EA <NA>          294 1D       EMA            2 <NA>                      1
 3 AA1K  <NA>         1590 1D       DE             2 Delmarva DX A…            1
 4 AA1PL <NA>         1220 1B1B     RI             5 <NA>                      1
 5 AA2AD <NA>           90 1D       WPA            2 <NA>                      3
 6 AA2BB <NA>          270 1B2      SC             2 Charleston ARS            2
 7 AA2BG <NA>          446 1E       WNY            2 <NA>                      1
 8 AA2BJ <NA>         5012 1D       NNY            2 <NA>                      2
 9 AA2MA <NA>          800 2B2B     AL             5 Huntsville ARC            2
10 AA3B  <NA>        10978 1E       EPA            2 <NA>                      1
# ℹ 5,868 more rows
# ℹ 7 more variables: Xmtrs <dbl>, `Power Source` <chr>, `TOTAL CW QSOs` <dbl>,
#   `TOTAL DIGITAL QSOs` <dbl>, `TOTAL PHONE QSOs` <dbl>, `TOTAL QSOs` <dbl>,
#   `BONUS POINTS` <dbl>

[[13]]
# A tibble: 4,929 × 16
   CALL  `GOTA Call` `FINAL SCORE` Category Section `Power Multiplier`
   <chr> <chr>               <dbl> <chr>    <chr>                <dbl>
 1 AA1EA <NA>                  410 1E       EMA                      2
 2 AA2BG <NA>                 1658 1E       WNY                      2
 3 AA2BJ <NA>                 4160 1D       NNY                      2
 4 AA2GF <NA>                  310 1D       WNY                      2
 5 AA2IL <NA>                 2300 2E       SDG                      2
 6 AA3B  <NA>                10990 1E       EPA                      2
 7 AA3CS <NA>                  790 1D       OH                       2
 8 AA3HD <NA>                   72 1B1      ME                       2
 9 AA3N  <NA>                  118 1D       NC                       2
10 AA3SP <NA>                  726 1D       EPA                      2
# ℹ 4,919 more rows
# ℹ 10 more variables: `Club Name` <chr>, Participants <dbl>,
#   Transmitters <dbl>, `Power Source` <chr>, `TOTAL CW QSOs` <dbl>,
#   `TOTAL DIGITAL QSOs` <dbl>, `TOTAL PHONE QSOs` <dbl>, `TOTAL QSOs` <dbl>,
#   `BONUS POINTS` <dbl>, `Checklog Y/N` <chr>

[[14]]
# A tibble: 4,447 × 15
   Call            `GOTA CALL` `FINAL SCORE` Category Section `Power Multiplier`
   <chr>           <chr>               <dbl> <chr>    <chr>                <dbl>
 1 4M1W            <NA>                  704 1D       DX                       2
 2 9A3YT           <NA>                  450 1D       DX                       2
 3 AA0AJ           <NA>                  898 1D       MN                       2
 4 AA0RC           <NA>                 1818 2A       MO                       2
 5 AA0RW           <NA>                 1358 2A       MN                       2
 6 AA1EA           <NA>                  286 1D       EMA                      2
 7 AA1ES           <NA>                  138 1D       NH                       2
 8 AA1NK           <NA>                   74 1D       EMA                      2
 9 AA1RC (KN4NEH,… <NA>                  346 1B2      GA                       2
10 AA1UC           <NA>                  206 1D       EMA                      2
# ℹ 4,437 more rows
# ℹ 9 more variables: `CLUB NAME` <chr>, Participants <dbl>,
#   Transmitters <dbl>, `Power Source` <chr>, `TOTAL CW QSOs` <dbl>,
#   `TOTAL DIGITAL QSOs` <dbl>, `TOTAL PHONE QSOs` <dbl>, `TOTAL QSOs` <dbl>,
#   `BONUS POINTS` <dbl>

[[15]]
# A tibble: 4,319 × 17
   Call   `GOTA CALL` `FINAL SCORE` Category Section `Power Multiplier`
   <chr>  <chr>               <dbl> <chr>    <chr>                <dbl>
 1 2E0FHM <NA>                  178 1D       DX                       2
 2 6D5C   <NA>                  186 1E       DX                       2
 3 AA0B   <NA>                 1680 1AB      MO                       5
 4 AA0K   <NA>                  202 1D       CO                       2
 5 AA0KW  <NA>                  592 1D       MS                       2
 6 AA0RC  <NA>                 1068 2A       MO                       2
 7 AA0RW  <NA>                 1284 2A       MN                       2
 8 AA0VE  <NA>                  610 1E       MO                       5
 9 AA0YY  <NA>                  206 1D       MO                       2
10 AA1CX  <NA>                  288 1C       ME                       2
# ℹ 4,309 more rows
# ℹ 11 more variables: `CLUB NAME` <chr>, Participants <dbl>,
#   Transmitters <dbl>, `Power Source` <chr>, `TOTAL CW QSOs` <dbl>,
#   `TOTAL DIGITAL QSOs` <dbl>, `TOTAL PHONE QSOs` <dbl>, `TOTAL QSOs` <dbl>,
#   `BONUS POINTS` <dbl>, `Checklog Y/N` <chr>, ...17 <lgl>

[[16]]
# A tibble: 4,373 × 16
   Call  `GOTA Call` `Final Score` Category Section `Power Multiplier`
   <chr> <chr>               <dbl> <chr>    <chr>                <dbl>
 1 AA0RC <NA>                 1692 2A       MO                       2
 2 AA0RW <NA>                 1686 2A       MN                       2
 3 AA0VE <NA>                  365 1E       MO                       5
 4 AA1NK <NA>                  466 1D       EMA                      2
 5 AA1UC <NA>                  322 1D       EMA                      2
 6 AA2BG <NA>                 1262 1B1      WNY                      2
 7 AA2BJ <NA>                 4176 1D       NNY                      2
 8 AA3B  <NA>                 9406 1E       EPA                      2
 9 AA3CS <NA>                  868 1D       OH                       2
10 AA3EE <NA>                  370 1E       WPA                      2
# ℹ 4,363 more rows
# ℹ 10 more variables: `Club Name` <chr>, Participants <dbl>,
#   Transmitters <dbl>, `Power Source` <chr>, `Total CW QSOs` <dbl>,
#   `Total Digital QSOs` <dbl>, `Total Phone QSOs` <dbl>, `Total QSOs` <dbl>,
#   `Bonus Points` <dbl>, `Checklog Y/N` <chr>
…
